…
Observations are the level of items in orders by user. There are
user/order variables – user ID, order ID, order day, and order hour.
There are also item variables – name, aisle, department, and same
numeric codes.

how many aisles, and which are most items from?

``` r
instacart %>% 
  count(aisle) %>% 
  arrange(desc(n))
```

    ## # A tibble: 134 x 2
    ##    aisle                              n
    ##    <chr>                          <int>
    ##  1 fresh vegetables              150609
    ##  2 fresh fruits                  150473
    ##  3 packaged vegetables fruits     78493
    ##  4 yogurt                         55240
    ##  5 packaged cheese                41699
    ##  6 water seltzer sparkling water  36617
    ##  7 milk                           32644
    ##  8 chips pretzels                 31269
    ##  9 soy lactosefree                26240
    ## 10 bread                          23635
    ## # ... with 124 more rows
…
    ## Parsed with column specification:
    ## cols(
    ##   .default = col_double(),
    ##   day = col_character()
    ## )

    ## See spec(...) for full column specifications.

``` r
accel_df %>% 
    mutate(minute = as.numeric(minute)) %>% 
  count(minute)
```

    ## # A tibble: 1,440 x 2
    ##    minute     n
    ##     <dbl> <int>
    ##  1      1    35
    ##  2      2    35
    ##  3      3    35
    ##  4      4    35
    ##  5      5    35
    ##  6      6    35
    ##  7      7    35
    ##  8      8    35
    ##  9      9    35
    ## 10     10    35
    ## # ... with 1,430 more rows
…
